R语言学习笔记-IntroR - 3 循环和purrr
…
Sepal.Length  Sepal.Width Petal.Length  Petal.Width 
    5.843333     3.057333     3.758000     1.199333 

# 各列归一化
rescale <- function(x, type = "pos"){
  rng = range(x, na.rm =  TRUE)  # 提取最小值和最大值
  if(type == "pos"){
    (x - rng[1]) / (rng[2] - rng[1])
  } else {
    (rng[2] - x) / (rng[2] - rng[1])
  }
}
map_dfc(df, rescale)

# A tibble: 150 × 4
   Sepal.Length Sepal.Width Petal.Length Petal.Width
          <dbl>       <dbl>        <dbl>       <dbl>
 1       0.222        0.625       0.0678      0.0417
 2       0.167        0.417       0.0678      0.0417
 3       0.111        0.5         0.0508      0.0417
 4       0.0833       0.458       0.0847      0.0417
 5       0.194        0.667       0.0678      0.0417
 6       0.306        0.792       0.119       0.125 
 7       0.0833       0.583       0.0678      0.0833
 8       0.194        0.583       0.0847      0.0417
 9       0.0278       0.375       0.0678      0.0417
10       0.167        0.458       0.0847      0     
# … with 140 more rows
…
