R语言学习笔记-IntroR - 6 ggolot2绘图
…
参数range, 设置尺寸大小范围，比如针对点的相对大小

6.1.1.2 案例

gapdata <- read_csv("datas/demo_data/gapminder.csv")

newgapdata <- gapdata %>% 
  group_by(continent, country) %>% 
  summarise(
    across(c(lifeExp, gdpPercap, pop), mean)
  )
newgapdata

# A tibble: 142 × 5
# Groups:   continent [5]
   continent country                  lifeExp gdpPercap       pop
   <chr>     <chr>                      <dbl>     <dbl>     <dbl>
 1 Africa    Algeria                     59.0     4426. 19875406.
 2 Africa    Angola                      37.9     3607.  7309390.
 3 Africa    Benin                       48.8     1155.  4017497.
 4 Africa    Botswana                    54.6     5032.   971186.
 5 Africa    Burkina Faso                44.7      844.  7548677.
 6 Africa    Burundi                     44.8      472.  4651608.
 7 Africa    Cameroon                    48.1     1775.  9816648.
 8 Africa    Central African Republic    43.9      959.  2560963 
 9 Africa    Chad                        46.8     1165.  5329256.
10 Africa    Comoros                     52.4     1314.   361684.
# … with 132 more rows
…
