R语言学习笔记-IntroR - 7 统计建模
…
model %>% 
  glance()

# A tibble: 1 × 12
  r.squared adj.r.squared sigma statistic  p.value    df logLik   AIC   BIC
      <dbl>         <dbl> <dbl>     <dbl>    <dbl> <dbl>  <dbl> <dbl> <dbl>
1     0.753         0.745  3.05      91.4 1.29e-10     1  -80.0  166.  170.
# … with 3 more variables: deviance <dbl>, df.residual <int>, nobs <int>

model %>% 
  augment()

# A tibble: 32 × 9
   .rownames           mpg    wt .fitted .resid   .hat .sigma .cooksd .std.resid
   <chr>             <dbl> <dbl>   <dbl>  <dbl>  <dbl>  <dbl>   <dbl>      <dbl>
 1 Mazda RX4          21    2.62    23.3 -2.28  0.0433   3.07 1.33e-2    -0.766 
 2 Mazda RX4 Wag      21    2.88    21.9 -0.920 0.0352   3.09 1.72e-3    -0.307 
 3 Datsun 710         22.8  2.32    24.9 -2.09  0.0584   3.07 1.54e-2    -0.706 
 4 Hornet 4 Drive     21.4  3.22    20.1  1.30  0.0313   3.09 3.02e-3     0.433 
 5 Hornet Sportabout  18.7  3.44    18.9 -0.200 0.0329   3.10 7.60e-5    -0.0668
 6 Valiant            18.1  3.46    18.8 -0.693 0.0332   3.10 9.21e-4    -0.231 
 7 Duster 360         14.3  3.57    18.2 -3.91  0.0354   3.01 3.13e-2    -1.31  
 8 Merc 240D          24.4  3.19    20.2  4.16  0.0313   3.00 3.11e-2     1.39  
 9 Merc 230           22.8  3.15    20.5  2.35  0.0314   3.07 9.96e-3     0.784 
10 Merc 280           19.2  3.44    18.9  0.300 0.0329   3.10 1.71e-4     0.100 
# … with 22 more rows
…
The following object is masked from 'package:broom':

    bootstrap

ex <- resample_partition(mtcars, c(test = 0.3, train = 0.7))
model <- lm(mpg ~ wt, data = ex$train)  # 建立线性模型
rmse(model, ex$test)  # 利用测试集计算构建模型的均方根误差

[1] 3.773909

model <- lm(mpg ~ wt + cyl + vs, data = mtcars)
data_grid(mtcars, wt = seq_range(wt, 10), cyl, vs) %>% 
   add_predictions(model)

# A tibble: 60 × 4
      wt   cyl    vs  pred
   <dbl> <dbl> <dbl> <dbl>
 1  1.51     4     0  28.4
 2  1.51     4     1  28.9
 3  1.51     6     0  25.6
 4  1.51     6     1  26.2
 5  1.51     8     0  22.9
 6  1.51     8     1  23.4
 7  1.95     4     0  27.0
 8  1.95     4     1  27.5
 9  1.95     6     0  24.2
10  1.95     6     1  24.8
# … with 50 more rows
…
7.4 批量建模

tidyverse中两种简介的批量建模方式，两种方式均很巧妙。

使用嵌套数据框+purrr::map实现

使用dplyr包的rowwise技术。

我们以ecostats2数据集为例，分别来看

load("datas/ecostats.rda")
economics

# A tibble: 574 × 6
   date         pce    pop psavert uempmed unemploy
   <date>     <dbl>  <dbl>   <dbl>   <dbl>    <dbl>
 1 1967-07-01  507. 198712    12.6     4.5     2944
 2 1967-08-01  510. 198911    12.6     4.7     2945
 3 1967-09-01  516. 199113    11.9     4.6     2958
 4 1967-10-01  512. 199311    12.9     4.9     3143
 5 1967-11-01  517. 199498    12.8     4.7     3066
 6 1967-12-01  525. 199657    11.8     4.8     3018
 7 1968-01-01  531. 199808    11.7     5.1     2878
 8 1968-02-01  534. 199920    12.3     4.5     3001
 9 1968-03-01  544. 200056    11.7     4.1     2877
10 1968-04-01  544  200208    12.3     4.6     2709
# … with 564 more rows
…
Danger

嵌套数据可以使用unnest(by_region, data)解除嵌套。

嵌套数据框的操作与普通数据框一直，如filter()、mutate()等函数均可以使用。

批量建模

对嵌套数据框的data列进行建模，使用mutate()函数增加一列模型列用来存放每个省份对应的data拟合人均消费水平对人均GDP的线性回归模型。

by_region <- by_region %>% 
   mutate(model = map(data, ~ lm(Consumption ~ gdpPercap, .x)))
by_region

# A tibble: 31 × 3
   Region               data model 
   <chr>  <list<tibble[,6]>> <list>
 1 安徽             [17 × 6] <lm>  
 2 北京             [17 × 6] <lm>  
 3 福建             [17 × 6] <lm>  
 4 甘肃             [17 × 6] <lm>  
 5 广东             [17 × 6] <lm>  
 6 广西             [17 × 6] <lm>  
 7 贵州             [17 × 6] <lm>  
 8 海南             [17 × 6] <lm>  
 9 河北             [17 × 6] <lm>  
10 河南             [17 × 6] <lm>  
# … with 21 more rows

继续修改列，在表中加入模型的判断统计量

by_region %>% 
   mutate(rmse = map2_dbl(model, data, rmse),
          rsq = map2_dbl(model, data, rsquare),
          slop = map_dbl(model, ~ coef(.x)[[2]]),
          pval = map_dbl(model, ~ glance(.x)$p.value))

# A tibble: 31 × 7
   Region               data model   rmse   rsq  slop     pval
   <chr>  <list<tibble[,6]>> <list> <dbl> <dbl> <dbl>    <dbl>
 1 安徽             [17 × 6] <lm>    185. 0.998 0.327 2.36e-22
 2 北京             [17 × 6] <lm>   2005. 0.975 0.392 1.71e-13
 3 福建             [17 × 6] <lm>    415. 0.996 0.287 2.20e-19
 4 甘肃             [17 × 6] <lm>    600. 0.976 0.448 1.55e-13
 5 广东             [17 × 6] <lm>    592. 0.994 0.417 2.40e-18
 6 广西             [17 × 6] <lm>    270. 0.996 0.433 9.88e-20
 7 贵州             [17 × 6] <lm>    268. 0.996 0.424 1.17e-19
 8 海南             [17 × 6] <lm>   1173. 0.955 0.417 1.77e-11
 9 河北             [17 × 6] <lm>    497. 0.985 0.368 3.32e-15
10 河南             [17 × 6] <lm>    663. 0.981 0.375 2.33e-14
# … with 21 more rows

也可以配合 broom 包的函数 tidy(), glance(), augment() 批量、整洁地提取模型结果，这些结果仍是嵌套的列表列，若要完整地显示出来，需 要借助 unnest() 解除嵌套.

提取模型系数估计及其统计量。

by_region %>% 
   mutate(result = map(model, tidy)) %>% 
   select(Region, result) %>% 
   unnest(cols = result)

# A tibble: 62 × 6
   Region term         estimate  std.error statistic  p.value
   <chr>  <chr>           <dbl>      <dbl>     <dbl>    <dbl>
 1 安徽   (Intercept)   942.      89.4        10.5   2.47e- 8
 2 安徽   gdpPercap       0.327    0.00340    96.2   2.36e-22
 3 北京   (Intercept) -3824.    1301.         -2.94  1.01e- 2
 4 北京   gdpPercap       0.392    0.0160     24.4   1.71e-13
 5 福建   (Intercept)  1502.     214.          7.01  4.21e- 6
 6 福建   gdpPercap       0.287    0.00471    60.9   2.20e-19
 7 甘肃   (Intercept)  -168.     319.         -0.528 6.05e- 1
 8 甘肃   gdpPercap       0.448    0.0182     24.6   1.55e-13
 9 广东   (Intercept)  -487.     363.         -1.34  1.99e- 1
10 广东   gdpPercap       0.417    0.00804    51.9   2.40e-18
# … with 52 more rows

提取模型诊断信息

by_region %>% 
   mutate(result = map(model, glance)) %>% 
   select(Region, result) %>% 
   unnest(cols = result)

# A tibble: 31 × 13
   Region r.squared adj.r.squared sigma statistic  p.value    df logLik   AIC
   <chr>      <dbl>         <dbl> <dbl>     <dbl>    <dbl> <dbl>  <dbl> <dbl>
 1 安徽       0.998         0.998  197.     9260. 2.36e-22     1  -113.  232.
 2 北京       0.975         0.974 2134.      597. 1.71e-13     1  -153.  313.
 3 福建       0.996         0.996  441.     3713. 2.20e-19     1  -127.  259.
 4 甘肃       0.976         0.974  638.      605. 1.55e-13     1  -133.  272.
 5 广东       0.994         0.994  630.     2696. 2.40e-18     1  -133.  271.
 6 广西       0.996         0.996  287.     4133. 9.88e-20     1  -119.  245.
 7 贵州       0.996         0.996  286.     4038. 1.17e-19     1  -119.  244.
 8 海南       0.955         0.952 1249.      315. 1.77e-11     1  -144.  295.
 9 河北       0.985         0.985  529.     1019. 3.32e-15     1  -130.  265.
10 河南       0.981         0.980  706.      783. 2.33e-14     1  -135.  275.
# … with 21 more rows, and 4 more variables: BIC <dbl>, deviance <dbl>,
#   df.residual <int>, nobs <int>

批量增加预测值、残差列等

by_region %>% 
   mutate(result = map(model, augment)) %>% 
   select(Region, result) %>% 
   unnest(cols = result)

# A tibble: 527 × 9
   Region Consumption gdpPercap .fitted  .resid   .hat .sigma .cooksd .std.resid
   <chr>        <dbl>     <dbl>   <dbl>   <dbl>  <dbl>  <dbl>   <dbl>      <dbl>
 1 安徽          2739     5716.   2811.  -72.5  0.140    203. 1.28e-2    -0.396 
 2 安徽          2988     6230.   2980.    8.49 0.135    204. 1.67e-4     0.0463
 3 安徽          3312     6990.   3228.   84.0  0.128    203. 1.53e-2     0.456 
 4 安徽          3707     8236.   3635.   71.7  0.117    203. 9.91e-3     0.387 
 5 安徽          3870     9274.   3975. -105.   0.109    202. 1.94e-2    -0.564 
 6 安徽          4409    10639.   4421.  -12.2  0.0986   204. 2.32e-4    -0.0651
 7 安徽          5276    12981.   5187.   89.0  0.0842   203. 1.02e-2     0.472 
 8 安徽          6006    15514.   6015.   -9.30 0.0722   204. 9.32e-5    -0.0490
 9 安徽          6829    17721.   6737.   92.0  0.0648   202. 8.07e-3     0.482 
10 安徽          8237    22242.   8216.   21.5  0.0588   204. 3.93e-4     0.112 
# … with 517 more rows

7.5 利用rowwise技术

rowwise按行方式操作数据，可以理解为一种特殊的分组：每一行为一组

by_region <- ecostats %>% 
   nest_by(Region)
by_region  # 增加了按行惭怍的分组信息：Rowwise:Region

# A tibble: 31 × 2
# Rowwise:  Region
   Region               data
   <chr>  <list<tibble[,6]>>
 1 安徽             [17 × 6]
 2 北京             [17 × 6]
 3 福建             [17 × 6]
 4 甘肃             [17 × 6]
 5 广东             [17 × 6]
 6 广西             [17 × 6]
 7 贵州             [17 × 6]
 8 海南             [17 × 6]
 9 河北             [17 × 6]
10 河南             [17 × 6]
# … with 21 more rows

nest_by()将一个省份的数据放在同一行中嵌套，正好契合rowwise的逻辑，即逐行的对每个嵌套的数据框进行建模和提取模型信息的操作，这些操作使用mutate()和summarise()连用来实现，前者会保持rowwise模式（计算结果行数保持不变），而后者相当于对每行结果做汇总，结果行数可变（变多，且结果不具有rowwise模式）。

by_region <- by_region %>% 
   mutate(model = list(lm(Consumption ~ gdpPercap, data)))
by_region

# A tibble: 31 × 3
# Rowwise:  Region
   Region               data model 
   <chr>  <list<tibble[,6]>> <list>
 1 安徽             [17 × 6] <lm>  
 2 北京             [17 × 6] <lm>  
 3 福建             [17 × 6] <lm>  
 4 甘肃             [17 × 6] <lm>  
 5 广东             [17 × 6] <lm>  
 6 广西             [17 × 6] <lm>  
 7 贵州             [17 × 6] <lm>  
 8 海南             [17 × 6] <lm>  
 9 河北             [17 × 6] <lm>  
10 河南             [17 × 6] <lm>  
# … with 21 more rows

批量建模后，使用模型列和数据列对模型的检验统计量进行计算:

使用mutate:

by_region %>% 
   mutate(
      rmse = rmse(model, data),
      rsq = rsquare(model, data),
      slope = coef(model)[[2]],
      pval = glance(model)$p.value
   )

# A tibble: 31 × 7
# Rowwise:  Region
   Region               data model   rmse   rsq slope     pval
   <chr>  <list<tibble[,6]>> <list> <dbl> <dbl> <dbl>    <dbl>
 1 安徽             [17 × 6] <lm>    185. 0.998 0.327 2.36e-22
 2 北京             [17 × 6] <lm>   2005. 0.975 0.392 1.71e-13
 3 福建             [17 × 6] <lm>    415. 0.996 0.287 2.20e-19
 4 甘肃             [17 × 6] <lm>    600. 0.976 0.448 1.55e-13
 5 广东             [17 × 6] <lm>    592. 0.994 0.417 2.40e-18
 6 广西             [17 × 6] <lm>    270. 0.996 0.433 9.88e-20
 7 贵州             [17 × 6] <lm>    268. 0.996 0.424 1.17e-19
 8 海南             [17 × 6] <lm>   1173. 0.955 0.417 1.77e-11
 9 河北             [17 × 6] <lm>    497. 0.985 0.368 3.32e-15
10 河南             [17 × 6] <lm>    663. 0.981 0.375 2.33e-14
# … with 21 more rows

使用broom：

by_region %>% 
   summarise(tidy(model))

`summarise()` has grouped output by 'Region'. You can override using the
`.groups` argument.

# A tibble: 62 × 6
# Groups:   Region [31]
   Region term         estimate  std.error statistic  p.value
   <chr>  <chr>           <dbl>      <dbl>     <dbl>    <dbl>
 1 安徽   (Intercept)   942.      89.4        10.5   2.47e- 8
 2 安徽   gdpPercap       0.327    0.00340    96.2   2.36e-22
 3 北京   (Intercept) -3824.    1301.         -2.94  1.01e- 2
 4 北京   gdpPercap       0.392    0.0160     24.4   1.71e-13
 5 福建   (Intercept)  1502.     214.          7.01  4.21e- 6
 6 福建   gdpPercap       0.287    0.00471    60.9   2.20e-19
 7 甘肃   (Intercept)  -168.     319.         -0.528 6.05e- 1
 8 甘肃   gdpPercap       0.448    0.0182     24.6   1.55e-13
 9 广东   (Intercept)  -487.     363.         -1.34  1.99e- 1
10 广东   gdpPercap       0.417    0.00804    51.9   2.40e-18
# … with 52 more rows

by_region %>% 
   summarise(glance(model))

`summarise()` has grouped output by 'Region'. You can override using the
`.groups` argument.

# A tibble: 31 × 13
# Groups:   Region [31]
   Region r.squared adj.r.squared sigma statistic  p.value    df logLik   AIC
   <chr>      <dbl>         <dbl> <dbl>     <dbl>    <dbl> <dbl>  <dbl> <dbl>
 1 安徽       0.998         0.998  197.     9260. 2.36e-22     1  -113.  232.
 2 北京       0.975         0.974 2134.      597. 1.71e-13     1  -153.  313.
 3 福建       0.996         0.996  441.     3713. 2.20e-19     1  -127.  259.
 4 甘肃       0.976         0.974  638.      605. 1.55e-13     1  -133.  272.
 5 广东       0.994         0.994  630.     2696. 2.40e-18     1  -133.  271.
 6 广西       0.996         0.996  287.     4133. 9.88e-20     1  -119.  245.
 7 贵州       0.996         0.996  286.     4038. 1.17e-19     1  -119.  244.
 8 海南       0.955         0.952 1249.      315. 1.77e-11     1  -144.  295.
 9 河北       0.985         0.985  529.     1019. 3.32e-15     1  -130.  265.
10 河南       0.981         0.980  706.      783. 2.33e-14     1  -135.  275.
# … with 21 more rows, and 4 more variables: BIC <dbl>, deviance <dbl>,
#   df.residual <int>, nobs <int>

by_region %>% 
   summarise(augment(model))

`summarise()` has grouped output by 'Region'. You can override using the
`.groups` argument.

# A tibble: 527 × 9
# Groups:   Region [31]
   Region Consumption gdpPercap .fitted  .resid   .hat .sigma .cooksd .std.resid
   <chr>        <dbl>     <dbl>   <dbl>   <dbl>  <dbl>  <dbl>   <dbl>      <dbl>
 1 安徽          2739     5716.   2811.  -72.5  0.140    203. 1.28e-2    -0.396 
 2 安徽          2988     6230.   2980.    8.49 0.135    204. 1.67e-4     0.0463
 3 安徽          3312     6990.   3228.   84.0  0.128    203. 1.53e-2     0.456 
 4 安徽          3707     8236.   3635.   71.7  0.117    203. 9.91e-3     0.387 
 5 安徽          3870     9274.   3975. -105.   0.109    202. 1.94e-2    -0.564 
 6 安徽          4409    10639.   4421.  -12.2  0.0986   204. 2.32e-4    -0.0651
 7 安徽          5276    12981.   5187.   89.0  0.0842   203. 1.02e-2     0.472 
 8 安徽          6006    15514.   6015.   -9.30 0.0722   204. 9.32e-5    -0.0490
 9 安徽          6829    17721.   6737.   92.0  0.0648   202. 8.07e-3     0.482 
10 安徽          8237    22242.   8216.   21.5  0.0588   204. 3.93e-4     0.112 
# … with 517 more rows
…
