R语言学习笔记-IntroR - 11 参数估计
…
[1] 163.3683 169.0317

计算基于Bootstrap法的置信区间

library(infer)
boot_means <- df %>% 
    specify(response = height) %>% 
    generate(reps = 1000, type = "bootstrap") %>%  # 1000次bootstrap
    calculate(stat = "mean")  # 计算统计量，样本均值
boot_means

Response: height (numeric)
# A tibble: 1,000 × 2
   replicate  stat
       <int> <dbl>
 1         1  167.
 2         2  167.
 3         3  165.
 4         4  163.
 5         5  167.
 6         6  166 
 7         7  166.
 8         8  167.
 9         9  168.
10        10  165.
# … with 990 more rows
…
