R语言学习笔记-IntroR - 13 回归分析
…
13.2.6 回归模型预测

13.3 多元线性回归实例

13.3.1 准备数据与简单探索

# 企鹅的数据集 penguins，包含 333 个样本，是有关企鹅的特征信息，包括种类、岛屿、嘴长、嘴宽、鳍长、性别。
# 探索企鹅的体重与这些特征间的关系
library(tidyverse)
penguins <- read_csv("datas/penguins.csv")  %>% 
  mutate(species = factor(species))
penguins

# A tibble: 333 × 7
   species island    bill_length bill_depth flipper_length body_mass sex   
   <fct>   <chr>           <dbl>      <dbl>          <dbl>     <dbl> <chr> 
 1 Adelie  Torgersen        39.1       18.7            181      3750 male  
 2 Adelie  Torgersen        39.5       17.4            186      3800 female
 3 Adelie  Torgersen        40.3       18              195      3250 female
 4 Adelie  Torgersen        36.7       19.3            193      3450 female
 5 Adelie  Torgersen        39.3       20.6            190      3650 male  
 6 Adelie  Torgersen        38.9       17.8            181      3625 female
 7 Adelie  Torgersen        39.2       19.6            195      4675 male  
 8 Adelie  Torgersen        41.1       17.6            182      3200 female
 9 Adelie  Torgersen        38.6       21.2            191      3800 male  
10 Adelie  Torgersen        34.6       21.1            198      4400 male  
# … with 323 more rows
…
