…
```r
# 模型拟合值-即预测结果
wages %>% 
  modelr::add_predictions(model1)
```

```
## # A tibble: 1,379 x 7
##      earn height sex    race        ed   age   pred
##     <dbl>  <dbl> <chr>  <chr>    <dbl> <dbl>  <dbl>
##  1 79571.   73.9 male   white       16    49 49867.
##  2 96397.   66.2 female white       16    62 31581.
##  3 48711.   63.8 female white       16    33 25708.
##  4 80478.   63.2 female other       16    95 24395.
##  5 82089.   63.1 female white       17    43 24061.
##  6 15313.   64.5 female white       15    30 27522.
##  7 47104.   61.5 female white       12    53 20385.
##  8 50960.   73.3 male   white       17    50 48434.
##  9  3213.   72.2 male   hispanic    15    25 45928.
## 10 42997.   72.4 male   white       12    30 46310.
## # ... with 1,369 more rows
```

```r
# 查看残差值-即观测值与估计值（拟合值）的差。
wages %>% 
  modelr::add_predictions(model1) %>% 
  modelr::add_residuals(model1)
```

```
## # A tibble: 1,379 x 8
##      earn height sex    race        ed   age   pred   resid
##     <dbl>  <dbl> <chr>  <chr>    <dbl> <dbl>  <dbl>   <dbl>
##  1 79571.   73.9 male   white       16    49 49867.  29705.
##  2 96397.   66.2 female white       16    62 31581.  64816.
##  3 48711.   63.8 female white       16    33 25708.  23003.
##  4 80478.   63.2 female other       16    95 24395.  56083.
##  5 82089.   63.1 female white       17    43 24061.  58028.
##  6 15313.   64.5 female white       15    30 27522. -12209.
##  7 47104.   61.5 female white       12    53 20385.  26720.
##  8 50960.   73.3 male   white       17    50 48434.   2526.
##  9  3213.   72.2 male   hispanic    15    25 45928. -42715.
## 10 42997.   72.4 male   white       12    30 46310.  -3313.
## # ... with 1,369 more rows
```
…
