…
这是一个诺贝尔得奖者的数据集。

## 导入数据


```r
library(tidyverse)
library(lubridate)
df <- read_csv("./datas/nobel_winners.csv")
df
```

```
## # A tibble: 969 x 18
##    prize_year category   prize     motivation prize_share laureate_id
##         <dbl> <chr>      <chr>     <chr>      <chr>             <dbl>
##  1       1901 Chemistry  The Nobe~ "\"in rec~ 1/1                 160
##  2       1901 Literature The Nobe~ "\"in spe~ 1/1                 569
##  3       1901 Medicine   The Nobe~ "\"for hi~ 1/1                 293
##  4       1901 Peace      The Nobe~  <NA>      1/2                 462
##  5       1901 Peace      The Nobe~  <NA>      1/2                 463
##  6       1901 Physics    The Nobe~ "\"in rec~ 1/1                   1
##  7       1902 Chemistry  The Nobe~ "\"in rec~ 1/1                 161
##  8       1902 Literature The Nobe~ "\"the gr~ 1/1                 571
##  9       1902 Medicine   The Nobe~ "\"for hi~ 1/1                 294
## 10       1902 Peace      The Nobe~  <NA>      1/2                 464
## # ... with 959 more rows, and 12 more variables:
## #   laureate_type <chr>, full_name <chr>, birth_date <date>,
## #   birth_city <chr>, birth_country <chr>, gender <chr>,
## #   organization_name <chr>, organization_city <chr>,
## #   organization_country <chr>, death_date <date>, death_city <chr>,
## #   death_country <chr>
```
…
```r
nobel_winners <- df %>% 
  mutate_if(is.character, tolower) %>%  # 字符转换为小写
  distinct_at(vars(full_name, prize_year, category),
              .keep_all = TRUE) %>% 
  mutate(
    decade = 10 * (prize_year %% 10), 
    prize_age = prize_year - year(birth_date)
  ) 
nobel_winners
```

```
## # A tibble: 911 x 20
##    prize_year category   prize     motivation prize_share laureate_id
##         <dbl> <chr>      <chr>     <chr>      <chr>             <dbl>
##  1       1901 chemistry  the nobe~ "\"in rec~ 1/1                 160
##  2       1901 literature the nobe~ "\"in spe~ 1/1                 569
##  3       1901 medicine   the nobe~ "\"for hi~ 1/1                 293
##  4       1901 peace      the nobe~  <NA>      1/2                 462
##  5       1901 peace      the nobe~  <NA>      1/2                 463
##  6       1901 physics    the nobe~ "\"in rec~ 1/1                   1
##  7       1902 chemistry  the nobe~ "\"in rec~ 1/1                 161
##  8       1902 literature the nobe~ "\"the gr~ 1/1                 571
##  9       1902 medicine   the nobe~ "\"for hi~ 1/1                 294
## 10       1902 peace      the nobe~  <NA>      1/2                 464
## # ... with 901 more rows, and 14 more variables:
## #   laureate_type <chr>, full_name <chr>, birth_date <date>,
## #   birth_city <chr>, birth_country <chr>, gender <chr>,
## #   organization_name <chr>, organization_city <chr>,
## #   organization_country <chr>, death_date <date>, death_city <chr>,
## #   death_country <chr>, decade <dbl>, prize_age <dbl>
```
…
nobel_winners_clean %>%
  mutate(
    colour = case_when(
      death_country == "united states of america" ~ "#FF2B4F",
      death_country == "germany" ~ "#fcab27",
      death_country == "united kingdom" ~ "#3686d3",
      death_country == "france" ~ "#88398a",
      death_country == "switzerland" ~ "#20d4bc",
      TRUE ~ "gray60"
    ))
```

```
## # A tibble: 911 x 10
##    full_name      prize_year category birth_date birth_country gender
##    <chr>               <dbl> <chr>    <date>     <chr>         <chr> 
##  1 "jacobus henr~       1901 chemist~ 1852-08-30 netherlands   male  
##  2 "sully prudho~       1901 literat~ 1839-03-16 france        male  
##  3 "emil adolf v~       1901 medicine 1854-03-15 poland        male  
##  4 "jean henry d~       1901 peace    1828-05-08 switzerland   male  
##  5 "frédéric pas~       1901 peace    1822-05-20 france        male  
##  6 "wilhelm conr~       1901 physics  1845-03-27 germany       male  
##  7 "hermann emil~       1902 chemist~ 1852-10-09 germany       male  
##  8 "christian ma~       1902 literat~ 1817-11-30 germany       male  
##  9 "ronald ross"        1902 medicine 1857-05-13 india         male  
## 10 " lie ducommu~       1902 peace    1833-02-19 switzerland   male  
## # ... with 901 more rows, and 4 more variables:
## #   organization_name <chr>, organization_country <chr>,
## #   death_country <chr>, colour <chr>
```
…
- 有182位获奖者不再自己的出生地工作。

### 共同获奖人


```r
nobel_winners %>% 
  separate(prize_share, into= c("num", "deno"), 
           sep = "/", remove = FALSE)
```

```
## # A tibble: 911 x 22
##    prize_year category   prize     motivation prize_share num   deno 
##         <dbl> <chr>      <chr>     <chr>      <chr>       <chr> <chr>
##  1       1901 chemistry  the nobe~ "\"in rec~ 1/1         1     1    
##  2       1901 literature the nobe~ "\"in spe~ 1/1         1     1    
##  3       1901 medicine   the nobe~ "\"for hi~ 1/1         1     1    
##  4       1901 peace      the nobe~  <NA>      1/2         1     2    
##  5       1901 peace      the nobe~  <NA>      1/2         1     2    
##  6       1901 physics    the nobe~ "\"in rec~ 1/1         1     1    
##  7       1902 chemistry  the nobe~ "\"in rec~ 1/1         1     1    
##  8       1902 literature the nobe~ "\"the gr~ 1/1         1     1    
##  9       1902 medicine   the nobe~ "\"for hi~ 1/1         1     1    
## 10       1902 peace      the nobe~  <NA>      1/2         1     2    
## # ... with 901 more rows, and 15 more variables: laureate_id <dbl>,
## #   laureate_type <chr>, full_name <chr>, birth_date <date>,
## #   birth_city <chr>, birth_country <chr>, gender <chr>,
## #   organization_name <chr>, organization_city <chr>,
## #   organization_country <chr>, death_date <date>, death_city <chr>,
## #   death_country <chr>, decade <dbl>, prize_age <dbl>
```
…
