第 35 章 探索性数据分析-奥林匹克 | 基于tidyverse的R语言学习笔记
…
图中显示的为100米比赛时间的趋势图（男子为蓝色、女子为红色），并根据历史数据对未来奥运会的情况进行了预测，结论为：男子女子100米比赛时间将在在2156年奥运会相交，届时获胜的女子100米短跑时间为8.079秒，将比男子的8.098秒更快。

虽然觉得这个结论不太严谨，但我却无力反驳。于是在文章补充材料里，我找到了文章使用的数据，现在的任务是，重复这张图和文章的分析过程。

35.1 导入数据

library(tidyverse)
library(readxl)

d <- read_excel("datas/olympics.xlsx")
d

## # A tibble: 27 x 3
##    Olympic_year Men_score Women_score
##           <dbl>     <dbl>       <dbl>
##  1         1900      11          NA  
##  2         1904      11          NA  
##  3         1908      10.8        NA  
##  4         1912      10.8        NA  
##  5         1916      NA          NA  
##  6         1920      10.8        NA  
##  7         1924      10.6        NA  
##  8         1928      10.8        12.2
##  9         1932      10.3        11.9
## 10         1936      10.3        11.5
## # ... with 17 more rows

# 数据规整
d1 <- d %>% 
  pivot_longer(
    cols = -Olympic_year,
    names_to = "sex",
    values_to = "winning_time"
  )
d1

## # A tibble: 54 x 3
##    Olympic_year sex         winning_time
##           <dbl> <chr>              <dbl>
##  1         1900 Men_score           11  
##  2         1900 Women_score         NA  
##  3         1904 Men_score           11  
##  4         1904 Women_score         NA  
##  5         1908 Men_score           10.8
##  6         1908 Women_score         NA  
##  7         1912 Men_score           10.8
##  8         1912 Women_score         NA  
##  9         1916 Men_score           NA  
## 10         1916 Women_score         NA  
## # ... with 44 more rows
…
# 建立从1900到2252的年份数据框
grid <- tibble(
  Olympic_year = as.numeric(seq(1900, 2252, by = 4))
)

# 将预测结果整合进年份数据框中
tb <- grid %>% 
  mutate(
    Predict_Men = predict(fit1, newdata = grid),
    Predict_Women = predict(fit2, newdata = grid)
  )
tb

## # A tibble: 89 x 3
##    Olympic_year Predict_Men Predict_Women
##           <dbl>       <dbl>         <dbl>
##  1         1900        10.9          12.4
##  2         1904        10.9          12.3
##  3         1908        10.8          12.3
##  4         1912        10.8          12.2
##  5         1916        10.7          12.1
##  6         1920        10.7          12.0
##  7         1924        10.7          12.0
##  8         1928        10.6          11.9
##  9         1932        10.6          11.8
## 10         1936        10.5          11.8
## # ... with 79 more rows

# modelr包中的add_predictions()函数可以实现相同功能
library(modelr)
grid %>% 
  add_predictions(fit1, var = "Predict_Men") %>% 
  add_predictions(fit2, var = "Predict_Women")

## # A tibble: 89 x 3
##    Olympic_year Predict_Men Predict_Women
##           <dbl>       <dbl>         <dbl>
##  1         1900        10.9          12.4
##  2         1904        10.9          12.3
##  3         1908        10.8          12.3
##  4         1912        10.8          12.2
##  5         1916        10.7          12.1
##  6         1920        10.7          12.0
##  7         1924        10.7          12.0
##  8         1928        10.6          11.9
##  9         1932        10.6          11.8
## 10         1936        10.5          11.8
## # ... with 79 more rows

35.5 再次可视化

tb1 <- tb %>% 
  pivot_longer(
    cols = -Olympic_year,
    names_to = "sex",
    values_to = "winning_time"
  )
tb1

## # A tibble: 178 x 3
##    Olympic_year sex           winning_time
##           <dbl> <chr>                <dbl>
##  1         1900 Predict_Men           10.9
##  2         1900 Predict_Women         12.4
##  3         1904 Predict_Men           10.9
##  4         1904 Predict_Women         12.3
##  5         1908 Predict_Men           10.8
##  6         1908 Predict_Women         12.3
##  7         1912 Predict_Men           10.8
##  8         1912 Predict_Women         12.2
##  9         1916 Predict_Men           10.7
## 10         1916 Predict_Women         12.1
## # ... with 168 more rows
…
