第 37 章 探索性数据分析-新冠疫情 | 基于tidyverse的R语言学习笔记
…
## Warning in FUN(X[[i]], ...): unable to translate '<U+00D8>' to native
## encoding

## Warning in FUN(X[[i]], ...): unable to translate '<U+00F8>' to native
## encoding

## Warning in FUN(X[[i]], ...): unable to translate '<U+00C5>' to native
## encoding

## Warning in FUN(X[[i]], ...): unable to translate '<U+00E5>' to native
## encoding

d_country

## # A tibble: 12,600 x 3
##    country_region date       cases
##    <chr>          <date>     <dbl>
##  1 Afghanistan    2020-01-22     0
##  2 Afghanistan    2020-01-23     0
##  3 Afghanistan    2020-01-24     0
##  4 Afghanistan    2020-01-25     0
##  5 Afghanistan    2020-01-26     0
##  6 Afghanistan    2020-01-27     0
##  7 Afghanistan    2020-01-28     0
##  8 Afghanistan    2020-01-29     0
##  9 Afghanistan    2020-01-30     0
## 10 Afghanistan    2020-01-31     0
## # ... with 12,590 more rows
…
