…
# ggplot2 {#ggplot2}



## 几何形状


```r
df <- read_csv("datas/datasaurus.csv")
df
```

```
## # A tibble: 1,846 x 3
##    dataset     x     y
##    <chr>   <dbl> <dbl>
##  1 dino     55.4  97.2
##  2 dino     51.5  96.0
##  3 dino     46.2  94.5
##  4 dino     42.8  91.4
##  5 dino     40.8  88.3
##  6 dino     38.7  84.9
##  7 dino     35.6  79.9
##  8 dino     33.1  77.6
##  9 dino     29.0  74.5
## 10 dino     26.2  71.4
## # ... with 1,836 more rows
```
…
这部分我们着重来看。



```r
df <- mpg %>% 
  as_tibble() %>% 
  filter(class != "2seater", 
         manufacturer %in% c("toyota", "volkswagen"))
df
```

```
## # A tibble: 61 x 11
##    manufacturer model displ  year   cyl trans drv     cty   hwy fl   
##    <chr>        <chr> <dbl> <int> <int> <chr> <chr> <int> <int> <chr>
##  1 toyota       4run~   2.7  1999     4 manu~ 4        15    20 r    
##  2 toyota       4run~   2.7  1999     4 auto~ 4        16    20 r    
##  3 toyota       4run~   3.4  1999     6 auto~ 4        15    19 r    
##  4 toyota       4run~   3.4  1999     6 manu~ 4        15    17 r    
##  5 toyota       4run~   4    2008     6 auto~ 4        16    20 r    
##  6 toyota       4run~   4.7  2008     8 auto~ 4        14    17 r    
##  7 toyota       camry   2.2  1999     4 manu~ f        21    29 r    
##  8 toyota       camry   2.2  1999     4 auto~ f        21    27 r    
##  9 toyota       camry   2.4  2008     4 manu~ f        21    31 r    
## 10 toyota       camry   2.4  2008     4 auto~ f        21    31 r    
## # ... with 51 more rows, and 1 more variable: class <chr>
```
…
