…
```r
# 查看驯鹿ID
individuals %>% 
  count(animal_id)
```

```
## # A tibble: 260 x 2
##    animal_id     n
##    <chr>     <int>
##  1 BP_car022     1
##  2 BP_car023     1
##  3 BP_car032     1
##  4 BP_car043     1
##  5 BP_car100     1
##  6 BP_car101     1
##  7 BP_car115     1
##  8 BP_car144     1
##  9 BP_car145     1
## 10 GR_C01        2
## # ... with 250 more rows
```

发现重复ID，理论上ID与驯鹿是一一对应的，需要对其进行处理。


```r
individuals %>% 
  janitor::get_dupes(animal_id)
```

```
## # A tibble: 50 x 15
##    animal_id dupe_count sex   life_stage pregnant with_calf
##    <chr>          <int> <chr> <chr>      <lgl>    <lgl>    
##  1 GR_C01             2 f     <NA>       NA       NA       
##  2 GR_C01             2 f     <NA>       NA       NA       
##  3 GR_C02             2 f     <NA>       NA       NA       
##  4 GR_C02             2 f     <NA>       NA       NA       
##  5 GR_C04             2 f     <NA>       NA       NA       
##  6 GR_C04             2 f     <NA>       NA       NA       
##  7 GR_C05             2 f     <NA>       NA       NA       
##  8 GR_C05             2 f     <NA>       NA       NA       
##  9 GR_C06             2 f     <NA>       NA       NA       
## 10 GR_C06             2 f     <NA>       NA       NA       
## # ... with 40 more rows, and 9 more variables: death_cause <chr>,
## #   study_site <chr>, deploy_on_longitude <dbl>,
## #   deploy_on_latitude <dbl>, deploy_on_comments <chr>,
## #   deploy_off_longitude <dbl>, deploy_off_latitude <dbl>,
## #   deploy_off_type <chr>, deploy_off_comments <chr>
```
…
