…
发现共有11行至少有一处缺失值，我们对这些行进行删除操作。


```r
penguins <- penguins %>% 
  drop_na()
penguins
```

```
## # A tibble: 333 x 8
##    species island    bill_length_mm bill_depth_mm flipper_length_mm
##    <chr>   <chr>              <dbl>         <dbl>             <dbl>
##  1 Adelie  Torgersen           39.1          18.7               181
##  2 Adelie  Torgersen           39.5          17.4               186
##  3 Adelie  Torgersen           40.3          18                 195
##  4 Adelie  Torgersen           36.7          19.3               193
##  5 Adelie  Torgersen           39.3          20.6               190
##  6 Adelie  Torgersen           38.9          17.8               181
##  7 Adelie  Torgersen           39.2          19.6               195
##  8 Adelie  Torgersen           41.1          17.6               182
##  9 Adelie  Torgersen           38.6          21.2               191
## 10 Adelie  Torgersen           34.6          21.1               198
## # ... with 323 more rows, and 3 more variables: body_mass_g <dbl>,
## #   sex <chr>, year <dbl>
```
…
d <- penguins %>% 
  select(sex, species, bill_length_mm:body_mass_g) %>% 
  mutate(
    across(where(is.numeric), scale_fun)
  ) %>% 
  mutate(male = if_else(sex == "male", 1, 0))
d
```

```
## # A tibble: 333 x 7
##    sex    species bill_length_mm bill_depth_mm flipper_length_mm
##    <chr>  <chr>            <dbl>         <dbl>             <dbl>
##  1 male   Adelie          -0.895         0.780            -1.42 
##  2 female Adelie          -0.822         0.119            -1.07 
##  3 female Adelie          -0.675         0.424            -0.426
##  4 female Adelie          -1.33          1.08             -0.568
##  5 male   Adelie          -0.858         1.74             -0.782
##  6 female Adelie          -0.931         0.323            -1.42 
##  7 male   Adelie          -0.876         1.24             -0.426
##  8 female Adelie          -0.529         0.221            -1.35 
##  9 male   Adelie          -0.986         2.05             -0.711
## 10 male   Adelie          -1.72          2.00             -0.212
## # ... with 323 more rows, and 2 more variables: body_mass_g <dbl>,
## #   male <dbl>
```
…
