第 42 章 探索性数据分析-大学生职业决策 | 基于tidyverse的R语言学习笔记
…
42.2.1 检查缺失值

data %>%
  summarise(
    across(everything(), ~ sum(is.na(.)))
  ) %>%
  pivot_longer(
    cols = everything(),
    names_to = "subject",
    values_to = "NAs"
  )

## # A tibble: 61 x 2
##    subject   NAs
##    <chr>   <int>
##  1 sex         0
##  2 majoy       0
##  3 grade       0
##  4 from        0
##  5 z1          0
##  6 z2          0
##  7 z3          0
##  8 z4          0
##  9 z5          0
## 10 z6          0
## # ... with 51 more rows
…
42.2.3 标准化数据

standard <- function(x) {
  (x - mean(x)) / sd(x)
}

d <- d %>% 
  mutate(
    across(where(is.numeric), standard)
  )
d

## # A tibble: 304 x 16
##    pid   sex   majoy grade from  environment_explor~ self_exploration
##    <fct> <fct> <fct> <fct> <fct>               <dbl>            <dbl>
##  1 1     1     4     4     2                 -1.63             -1.58 
##  2 2     1     4     4     1                 -1.87             -0.723
##  3 3     2     4     4     2                  0.0802            0.132
##  4 4     2     4     4     1                 -1.87             -1.15 
##  5 5     2     4     4     1                 -0.895            -1.58 
##  6 6     1     1     4     3                 -0.651             1.41 
##  7 7     1     4     4     3                 -2.36             -0.723
##  8 8     1     4     4     1                 -0.407            -1.15 
##  9 9     1     4     4     3                 -0.651             0.132
## 10 10    1     4     4     2                  0.324             0.132
## # ... with 294 more rows, and 9 more variables:
## #   objective_system_exploration <dbl>,
## #   info_quantity_exploration <dbl>, self_evaluation <dbl>,
## #   information_collection <dbl>, target_select <dbl>,
## #   formulate <dbl>, problem_solving <dbl>,
## #   career_exploration <dbl>, career_decision_making <dbl>
…
