…
2. 长表变宽表：有时候需要将分类变量的若干水平值，变成变量名（列名）。看一个例子：


```r
# 例1
us_rent_income %>% 
  pivot_wider(
    names_from = variable, 
    values_from = c(estimate, moe)
    )
```

```
## # A tibble: 52 x 6
##    GEOID NAME       estimate_income estimate_rent moe_income moe_rent
##    <chr> <chr>                <dbl>         <dbl>      <dbl>    <dbl>
##  1 01    Alabama              24476           747        136        3
##  2 02    Alaska               32940          1200        508       13
##  3 04    Arizona              27517           972        148        4
##  4 05    Arkansas             23789           709        165        5
##  5 06    California           29454          1358        109        3
##  6 08    Colorado             32401          1125        109        5
##  7 09    Connectic~           35326          1123        195        5
##  8 10    Delaware             31560          1076        247       10
##  9 11    District ~           43198          1424        681       17
## 10 12    Florida              25952          1077         70        3
## # ... with 42 more rows
```
…
## 综合实例


```r
world_bank_pop
```

```
## # A tibble: 1,056 x 20
##    country indicator      `2000` `2001` `2002` `2003`  `2004`  `2005`
##    <chr>   <chr>           <dbl>  <dbl>  <dbl>  <dbl>   <dbl>   <dbl>
##  1 ABW     SP.URB.TOTL    4.24e4 4.30e4 4.37e4 4.42e4 4.47e+4 4.49e+4
##  2 ABW     SP.URB.GROW    1.18e0 1.41e0 1.43e0 1.31e0 9.51e-1 4.91e-1
##  3 ABW     SP.POP.TOTL    9.09e4 9.29e4 9.50e4 9.70e4 9.87e+4 1.00e+5
##  4 ABW     SP.POP.GROW    2.06e0 2.23e0 2.23e0 2.11e0 1.76e+0 1.30e+0
##  5 AFG     SP.URB.TOTL    4.44e6 4.65e6 4.89e6 5.16e6 5.43e+6 5.69e+6
##  6 AFG     SP.URB.GROW    3.91e0 4.66e0 5.13e0 5.23e0 5.12e+0 4.77e+0
##  7 AFG     SP.POP.TOTL    2.01e7 2.10e7 2.20e7 2.31e7 2.41e+7 2.51e+7
##  8 AFG     SP.POP.GROW    3.49e0 4.25e0 4.72e0 4.82e0 4.47e+0 3.87e+0
##  9 AGO     SP.URB.TOTL    8.23e6 8.71e6 9.22e6 9.77e6 1.03e+7 1.09e+7
## 10 AGO     SP.URB.GROW    5.44e0 5.59e0 5.70e0 5.76e0 5.75e+0 5.69e+0
## # ... with 1,046 more rows, and 12 more variables: `2006` <dbl>,
## #   `2007` <dbl>, `2008` <dbl>, `2009` <dbl>, `2010` <dbl>,
## #   `2011` <dbl>, `2012` <dbl>, `2013` <dbl>, `2014` <dbl>,
## #   `2015` <dbl>, `2016` <dbl>, `2017` <dbl>
```
…
```
## # A tibble: 9,504 x 5
##    country area  year   TOTL    GROW
##    <chr>   <chr> <chr> <dbl>   <dbl>
##  1 ABW     URB   2000  42444  1.18  
##  2 ABW     URB   2001  43048  1.41  
##  3 ABW     URB   2002  43670  1.43  
##  4 ABW     URB   2003  44246  1.31  
##  5 ABW     URB   2004  44669  0.951 
##  6 ABW     URB   2005  44889  0.491 
##  7 ABW     URB   2006  44881 -0.0178
##  8 ABW     URB   2007  44686 -0.435 
##  9 ABW     URB   2008  44375 -0.698 
## 10 ABW     URB   2009  44052 -0.731 
## # ... with 9,494 more rows
```
…
