…
```
## Warning: `as.tibble()` was deprecated in tibble 2.0.0.
## Please use `as_tibble()` instead.
## The signature and semantics have changed, see `?as_tibble`.
## This warning is displayed once every 8 hours.
## Call `lifecycle::last_lifecycle_warnings()` to see where this warning was generated.
```

```
## # A tibble: 150 x 5
##    Sepal.Length Sepal.Width Petal.Length Petal.Width Species
##           <dbl>       <dbl>        <dbl>       <dbl> <fct>  
##  1           51          35           14           2 setosa 
##  2           49          30           14           2 setosa 
##  3           47          32           13           2 setosa 
##  4           46          31           15           2 setosa 
##  5           50          36           14           2 setosa 
##  6           54          39           17           4 setosa 
##  7           46          34           14           3 setosa 
##  8           50          34           15           2 setosa 
##  9           44          29           14           2 setosa 
## 10           49          31           15           1 setosa 
## # ... with 140 more rows
```
…
3. `set_names()`为所有列设置新列名；`rename()`只修改部分列名


```r
df <- read_excel("datas/new/ExamDatas_NAs.xlsx")

# 修改全部列名
df %>% 
  set_names(" 班级", " 姓名", " 性别", " 语文",
            " 数学", " 英语", " 品德", " 科学")
```

```
## # A tibble: 50 x 8
##    ` 班级` ` 姓名` ` 性别` ` 语文` ` 数学` ` 英语` ` 品德` ` 科学`
##    <chr>   <chr>   <chr>     <dbl>   <dbl>   <dbl>   <dbl>   <dbl>
##  1 六1班   何娜    女           87      92      79       9      10
##  2 六1班   黄才菊  女           95      77      75      NA       9
##  3 六1班   陈芳妹  女           79      87      66       9      10
##  4 六1班   陈学勤  男           NA      79      66       9      10
##  5 六1班   陈祝贞  女           76      79      67       8      10
##  6 六1班   何小薇  女           83      73      65       8       9
##  7 六1班   雷旺    男           NA      80      68       8       9
##  8 六1班   陈欣越  男           57      80      60       9       9
##  9 六1班   黄亦婷  女           77      NA      54       8      10
## 10 六1班   陈媚    女           68      55      66       8       9
## # ... with 40 more rows
```

```r
# 修改部分列名
df %>% 
  rename(数学 = math, 科学 = science)
```

```
## # A tibble: 50 x 8
##    class name   sex   chinese  数学 english moral  科学
##    <chr> <chr>  <chr>   <dbl> <dbl>   <dbl> <dbl> <dbl>
##  1 六1班 何娜   女         87    92      79     9    10
##  2 六1班 黄才菊 女         95    77      75    NA     9
##  3 六1班 陈芳妹 女         79    87      66     9    10
##  4 六1班 陈学勤 男         NA    79      66     9    10
##  5 六1班 陈祝贞 女         76    79      67     8    10
##  6 六1班 何小薇 女         83    73      65     8     9
##  7 六1班 雷旺   男         NA    80      68     8     9
##  8 六1班 陈欣越 男         57    80      60     9     9
##  9 六1班 黄亦婷 女         77    NA      54     8    10
## 10 六1班 陈媚   女         68    55      66     8     9
## # ... with 40 more rows
```

4. 重新编码：


```r
# 1. 两种类别情况：if_else
df %>% 
  mutate(if_else(sex == "男", "M", "F"))
```

```
## # A tibble: 50 x 9
##    class name   sex   chinese  math english moral science
##    <chr> <chr>  <chr>   <dbl> <dbl>   <dbl> <dbl>   <dbl>
##  1 六1班 何娜   女         87    92      79     9      10
##  2 六1班 黄才菊 女         95    77      75    NA       9
##  3 六1班 陈芳妹 女         79    87      66     9      10
##  4 六1班 陈学勤 男         NA    79      66     9      10
##  5 六1班 陈祝贞 女         76    79      67     8      10
##  6 六1班 何小薇 女         83    73      65     8       9
##  7 六1班 雷旺   男         NA    80      68     8       9
##  8 六1班 陈欣越 男         57    80      60     9       9
##  9 六1班 黄亦婷 女         77    NA      54     8      10
## 10 六1班 陈媚   女         68    55      66     8       9
## # ... with 40 more rows, and 1 more variable:
## #   `if_else(sex == "男", "M", "F")` <chr>
```

```r
# 2. 多种类别情况：case_when
df %>% 
  mutate(math = case_when(math >= 75 ~ "High",
                   math >= 60 ~ "Middle",
                   TRUE       ~ "Low"))
```

```
## # A tibble: 50 x 8
##    class name   sex   chinese math   english moral science
##    <chr> <chr>  <chr>   <dbl> <chr>    <dbl> <dbl>   <dbl>
##  1 六1班 何娜   女         87 High        79     9      10
##  2 六1班 黄才菊 女         95 High        75    NA       9
##  3 六1班 陈芳妹 女         79 High        66     9      10
##  4 六1班 陈学勤 男         NA High        66     9      10
##  5 六1班 陈祝贞 女         76 High        67     8      10
##  6 六1班 何小薇 女         83 Middle      65     8       9
##  7 六1班 雷旺   男         NA High        68     8       9
##  8 六1班 陈欣越 男         57 High        60     9       9
##  9 六1班 黄亦婷 女         77 Low         54     8      10
## 10 六1班 陈媚   女         68 Low         66     8       9
## # ... with 40 more rows
```

5. 删除行

   - 删除重复行：`distinct()`函数
   - 删除有缺失值的行：`drop_na()`函数
   

```r
df %>% 
  distinct()
```

```
## # A tibble: 50 x 8
##    class name   sex   chinese  math english moral science
##    <chr> <chr>  <chr>   <dbl> <dbl>   <dbl> <dbl>   <dbl>
##  1 六1班 何娜   女         87    92      79     9      10
##  2 六1班 黄才菊 女         95    77      75    NA       9
##  3 六1班 陈芳妹 女         79    87      66     9      10
##  4 六1班 陈学勤 男         NA    79      66     9      10
##  5 六1班 陈祝贞 女         76    79      67     8      10
##  6 六1班 何小薇 女         83    73      65     8       9
##  7 六1班 雷旺   男         NA    80      68     8       9
##  8 六1班 陈欣越 男         57    80      60     9       9
##  9 六1班 黄亦婷 女         77    NA      54     8      10
## 10 六1班 陈媚   女         68    55      66     8       9
## # ... with 40 more rows
```

```r
df %>% 
  drop_na()
```

```
## # A tibble: 30 x 8
##    class name   sex   chinese  math english moral science
##    <chr> <chr>  <chr>   <dbl> <dbl>   <dbl> <dbl>   <dbl>
##  1 六1班 何娜   女         87    92      79     9      10
##  2 六1班 陈芳妹 女         79    87      66     9      10
##  3 六1班 陈祝贞 女         76    79      67     8      10
##  4 六1班 何小薇 女         83    73      65     8       9
##  5 六1班 陈欣越 男         57    80      60     9       9
##  6 六1班 陈媚   女         68    55      66     8       9
##  7 六2班 黄祖娜 女         94    88      75    10      10
##  8 六2班 陈华健 男         92    84      70     9      10
##  9 六2班 杨远芸 女         93    80      68     9      10
## 10 六2班 林师满 男         70    74      25     8      10
## # ... with 20 more rows
```
…
```
## # A tibble: 30 x 5
##    class Subject   sum  mean   min
##    <chr> <chr>   <dbl> <dbl> <dbl>
##  1 六1班 chinese   622 77.8     57
##  2 六1班 math      702 78       55
##  3 六1班 english   666 66.6     54
##  4 六1班 moral      76  8.44     8
##  5 六1班 science    95  9.5      9
##  6 六2班 chinese   746 82.9     66
##  7 六2班 math      570 71.2     41
##  8 六2班 english   468 52       25
##  9 六2班 moral      69  8.62     6
## 10 六2班 science    73  9.12     7
## # ... with 20 more rows
```
…
通常的数据逻辑都是按列进行汇总，按行汇总时比较困难。

`dplyr`包中中`rowwise()`函数为数据框创建按行方式进行汇总的方式：`rowwise()`不是真的改变数据框，只是创建了按行元信息，改变了数据框的逻辑。


```r
# 行逻辑，对每行所选列的数据进行操作
df %>% 
  rowwise() %>% 
  mutate(total = sum(c(chinese, math, english), na.rm = TRUE))
```

```
## # A tibble: 50 x 9
## # Rowwise: 
##    class name   sex   chinese  math english moral science total
##    <chr> <chr>  <chr>   <dbl> <dbl>   <dbl> <dbl>   <dbl> <dbl>
##  1 六1班 何娜   女         87    92      79     9      10   258
##  2 六1班 黄才菊 女         95    77      75    NA       9   247
##  3 六1班 陈芳妹 女         79    87      66     9      10   232
##  4 六1班 陈学勤 男         NA    79      66     9      10   145
##  5 六1班 陈祝贞 女         76    79      67     8      10   222
##  6 六1班 何小薇 女         83    73      65     8       9   221
##  7 六1班 雷旺   男         NA    80      68     8       9   148
##  8 六1班 陈欣越 男         57    80      60     9       9   197
##  9 六1班 黄亦婷 女         77    NA      54     8      10   131
## 10 六1班 陈媚   女         68    55      66     8       9   189
## # ... with 40 more rows
```

```r
# 列逻辑，对所选列的所有数据进行操作
df %>% 
  mutate(total = sum(c(chinese, math, english), na.rm = TRUE))
```

```
## # A tibble: 50 x 9
##    class name   sex   chinese  math english moral science total
##    <chr> <chr>  <chr>   <dbl> <dbl>   <dbl> <dbl>   <dbl> <dbl>
##  1 六1班 何娜   女         87    92      79     9      10  9739
##  2 六1班 黄才菊 女         95    77      75    NA       9  9739
##  3 六1班 陈芳妹 女         79    87      66     9      10  9739
##  4 六1班 陈学勤 男         NA    79      66     9      10  9739
##  5 六1班 陈祝贞 女         76    79      67     8      10  9739
##  6 六1班 何小薇 女         83    73      65     8       9  9739
##  7 六1班 雷旺   男         NA    80      68     8       9  9739
##  8 六1班 陈欣越 男         57    80      60     9       9  9739
##  9 六1班 黄亦婷 女         77    NA      54     8      10  9739
## 10 六1班 陈媚   女         68    55      66     8       9  9739
## # ... with 40 more rows
```
…
